Dato;Nye tilfeller;Totale tilfeller
2020-01-01;0;0
2020-01-02;0;0
2020-01-03;0;0
2020-01-04;0;0
2020-01-05;0;0
2020-01-06;0;0
2020-01-07;0;0
2020-01-08;0;0
2020-01-09;0;0
2020-01-10;0;0
2020-01-11;0;0
2020-01-12;0;0
2020-01-13;0;0
2020-01-14;0;0
2020-01-15;0;0
2020-01-16;0;0
2020-01-17;0;0
2020-01-18;0;0
2020-01-19;0;0
2020-01-20;0;0
2020-01-21;0;0
2020-01-22;0;0
2020-01-23;0;0
2020-01-24;0;0
2020-01-25;0;0
2020-01-26;0;0
2020-01-27;0;0
2020-01-28;0;0
2020-01-29;0;0
2020-01-30;0;0
2020-01-31;0;0
2020-02-01;0;0
2020-02-02;0;0
2020-02-03;0;0
2020-02-04;0;0
2020-02-05;0;0
2020-02-06;0;0
2020-02-07;0;0
2020-02-08;0;0
2020-02-09;0;0
2020-02-10;0;0
2020-02-11;0;0
2020-02-12;0;0
2020-02-13;0;0
2020-02-14;0;0
2020-02-15;0;0
2020-02-16;0;0
2020-02-17;0;0
2020-02-18;0;0
2020-02-19;0;0
2020-02-20;0;0
2020-02-21;0;0
2020-02-22;0;0
2020-02-23;0;0
2020-02-24;0;0
2020-02-25;0;0
2020-02-26;0;0
2020-02-27;1;1
2020-02-28;9;15
2020-02-29;6;21
2020-03-01;10;31
2020-03-02;12;43
2020-03-03;31;74
2020-03-04;33;107
2020-03-05;33;140
2020-03-06;24;164
2020-03-07;19;183
2020-03-08;65;248
2020-03-09;247;495
2020-03-10;241;736
2020-03-11;175;911
2020-03-12;206;1117
2020-03-13;147;1264
2020-03-14;100;1364
2020-03-15;99;1463
2020-03-16;180;1643
2020-03-17;176;1819
2020-03-18;213;2032
2020-03-19;239;2271
2020-03-20;308;2579
2020-03-21;174;2753
2020-03-22;148;2901
2020-03-23;296;3197
2020-03-24;313;3510
2020-03-25;292;3802
2020-03-26;298;4100
2020-03-27;262;4362
2020-03-28;166;4528
2020-03-29;106;4634
2020-03-30;264;4898
2020-03-31;208;5106
2020-04-01;198;5304
2020-04-02;198;5502
2020-04-03;164;5666
2020-04-04;88;5754
2020-04-05;72;5826
2020-04-06;159;5985
2020-04-07;140;6125
2020-04-08;106;6231
2020-04-09;103;6334
2020-04-10;68;6402
2020-04-11;110;6512
2020-04-12;76;6588
2020-04-13;77;6665
2020-04-14;122;6787
2020-04-15;103;6890
2020-04-16;80;6970
2020-04-17;108;7078
2020-04-18;49;7127
2020-04-19;36;7163
2020-04-20;84;7247
2020-04-21;78;7325
2020-04-22;77;7402
2020-04-23;69;7471
2020-04-24;53;7524
2020-04-25;25;7549
2020-04-26;37;7586
2020-04-27;71;7657
2020-04-28;50;7707
2020-04-29;39;7746
2020-04-30;39;7785
2020-05-01;43;7828
2020-05-02;23;7851
2020-05-03;44;7895
2020-05-04;45;7940
2020-05-05;44;7984
2020-05-06;39;8023
2020-05-07;29;8052
2020-05-08;42;8094
2020-05-09;11;8105
2020-05-10;12;8117
2020-05-11;25;8142
2020-05-12;19;8161
2020-05-13;19;8180
2020-05-14;24;8204
2020-05-15;23;8227
2020-05-16;13;8240
2020-05-17;4;8244
2020-05-18;17;8261
2020-05-19;20;8281
2020-05-20;19;8300
2020-05-21;14;8314
2020-05-22;26;8340
2020-05-23;6;8346
2020-05-24;6;8352
2020-05-25;18;8370
2020-05-26;12;8382
2020-05-27;18;8400
2020-05-28;16;8416
2020-05-29;16;8432
2020-05-31;6;8438
2020-06-01;7;8445
2020-06-02;31;8476
2020-06-03;12;8488
2020-06-04;17;8505
2020-06-05;30;8535
2020-06-06;8;8543
2020-06-07;9;8552
2020-06-08;19;8571
2020-06-09;13;8584
2020-06-10;14;8598
2020-06-11;11;8609
2020-06-12;13;8622
2020-06-13;7;8629
2020-06-14;6;8635
2020-06-15;18;8653
2020-06-16;36;8689
2020-06-17;15;8704
2020-06-18;13;8717
2020-06-19;18;8735
2020-06-20;6;8741
2020-06-21;4;8745
2020-06-22;28;8773
2020-06-23;13;8786
2020-06-24;21;8807
2020-06-25;17;8824
2020-06-26;22;8846
2020-06-27;10;8856
2020-06-28;1;8857
2020-06-29;26;8883
2020-06-30;11;8894
2020-07-01;8;8902
2020-07-02;9;8911
2020-07-03;10;8921
2020-07-04;2;8923
2020-07-05;1;8924
2020-07-06;14;8938
2020-07-07;10;8948
2020-07-08;11;8959
2020-07-09;8;8967
2020-07-10;13;8980
2020-07-11;4;8984
2020-07-12;5;8989
2020-07-13;19;9008
2020-07-14;8;9016
2020-07-15;6;9022
2020-07-16;4;9026
2020-07-17;12;9038
2020-07-18;1;9039
2020-07-19;3;9042
2020-07-20;21;9063
2020-07-21;6;9069
2020-07-22;22;9091
2020-07-23;6;9097
2020-07-24;24;9121
2020-07-25;6;9127
2020-07-26;9;9136
2020-07-27;24;9160
2020-07-28;16;9176
2020-07-29;37;9213
2020-07-30;23;9236
2020-07-31;72;9308
2020-08-01;14;9322
2020-08-02;13;9335
2020-08-03;38;9373
2020-08-04;40;9413
2020-08-05;66;9479
2020-08-06;79;9558
2020-08-07;80;9638
2020-08-08;35;9673
2020-08-09;34;9707
2020-08-10;63;9770
2020-08-11;43;9813
2020-08-12;63;9876
2020-08-13;54;9930
2020-08-14;76;10006
2020-08-15;44;10050
2020-08-16;27;10077
2020-08-17;74;10151
2020-08-18;58;10209
2020-08-19;60;10269
2020-08-20;50;10319
2020-08-21;53;10372
2020-08-22;45;10417
2020-08-23;19;10436
2020-08-24;67;10503
2020-08-25;42;10545
2020-08-26;40;10585
2020-08-27;52;10637
2020-08-28;84;10721
2020-08-29;42;10763
2020-08-30;50;10813
2020-08-31;148;10961
2020-09-01;115;11076
2020-09-02;101;11177
2020-09-03;125;11302
2020-09-04;119;11421
2020-09-05;73;11494
2020-09-06;60;11554
2020-09-07;132;11686
2020-09-08;113;11799
2020-09-09;124;11923
2020-09-10;132;12055
2020-09-11;119;12174
2020-09-12;67;12241
2020-09-13;78;12319
2020-09-14;104;12423
2020-09-15;133;12556
2020-09-16;137;12693
2020-09-17;117;12810
2020-09-18;94;12904
2020-09-19;58;12962
2020-09-20;77;13039
2020-09-21;163;13202
2020-09-22;101;13303
2020-09-23;143;13446
2020-09-24;133;13579
2020-09-25;130;13709
2020-09-26;63;13772
2020-09-27;54;13826
2020-09-28;124;13950
2020-09-29;110;14060
2020-09-30;120;14180
2020-10-01;131;14311
2020-10-02;134;14445
2020-10-03;110;14555
2020-10-04;89;14644
2020-10-05;209;14853
2020-10-06;198;15051
2020-10-07;199;15250
2020-10-08;168;15418
2020-10-09;141;15559
2020-10-10;65;15624
2020-10-11;78;15702
2020-10-12;167;15869
2020-10-13;155;16024
2020-10-14;162;16186
2020-10-15;141;16327
2020-10-16;137;16464
2020-10-17;88;16552
2020-10-18;93;16645
2020-10-19;219;16864
2020-10-20;183;17047
2020-10-21;221;17268
2020-10-22;285;17553
2020-10-23;368;17921
2020-10-24;231;18152
2020-10-25;202;18354
2020-10-26;487;18841
2020-10-27;391;19232
2020-10-28;514;19746
2020-10-29;431;20177
2020-10-30;617;20794
2020-10-31;385;21179
2020-11-01;323;21502
2020-11-02;647;22149
2020-11-03;682;22831
2020-11-04;690;23521
2020-11-05;602;24123
2020-11-06;650;24773
2020-11-07;388;25161
2020-11-08;385;25546
2020-11-09;706;26252
2020-11-10;603;26855
2020-11-11;662;27517
2020-11-12;637;28154
2020-11-13;697;28851
2020-11-14;379;29230
2020-11-15;405;29635
2020-11-16;722;30357
2020-11-17;635;30992
2020-11-18;652;31644
2020-11-19;564;32208
2020-11-20;519;32727
2020-11-21;288;33015
2020-11-22;279;33294
2020-11-23;609;33903
2020-11-24;415;34318
2020-11-25;513;34831
2020-11-26;477;35308
2020-11-27;447;35755
2020-11-28;236;35991
2020-11-29;228;36219
2020-11-30;448;36667
2020-12-01;362;37029
2020-12-02;420;37449
2020-12-03;400;37849
2020-12-04;382;38231
2020-12-05;252;38483
2020-12-06;262;38745
2020-12-07;500;39245
2020-12-08;392;39637
2020-12-09;453;40090
2020-12-10;435;40525
2020-12-11;403;40928
2020-12-12;256;41184
2020-12-13;285;41469
2020-12-14;544;42013
2020-12-15;440;42453
2020-12-16;450;42903
2020-12-17;431;43334
2020-12-18;475;43809
2020-12-19;309;44118
2020-12-20;299;44417
2020-12-21;621;45038
2020-12-22;560;45598
2020-12-23;587;46185
2020-12-24;292;46477
2020-12-25;293;46770
2020-12-26;466;47236
2020-12-27;425;47661
2020-12-28;778;48439
2020-12-29;699;49138
2020-12-30;639;49777
2020-12-31;434;50211
2021-01-01;346;50557
2021-01-02;526;51083
2021-01-03;446;51529
2021-01-04;938;52467
2021-01-05;794;53261
2021-01-06;710;53971
2021-01-07;737;54708
2021-01-08;651;55359
2021-01-09;414;55773
2021-01-10;435;56208
2021-01-11;639;56847
2021-01-12;562;57409
2021-01-13;462;57871
2021-01-14;454;58325
2021-01-15;398;58723
2021-01-16;267;58990
2021-01-17;226;59216
2021-01-18;446;59662
2021-01-19;342;60004
2021-01-20;354;60358
2021-01-21;345;60703
2021-01-22;331;61034
2021-01-23;212;61246
2021-01-24;189;61435
2021-01-25;387;61822
2021-01-26;276;62098
2021-01-27;344;62442
2021-01-28;285;62727
2021-01-29;295;63022
2021-01-30;175;63197
2021-01-31;182;63379
2021-02-01;319;63698
2021-02-02;294;63992
2021-02-03;325;64317
2021-02-04;253;64570
2021-02-05;288;64858
2021-02-06;198;65056
2021-02-07;167;65223
2021-02-08;301;65524
2021-02-09;270;65794
2021-02-10;310;66104
2021-02-11;262;66366
2021-02-12;247;66613
2021-02-13;184;66797
2021-02-14;160;66957
2021-02-15;332;67289
2021-02-16;305;67594
2021-02-17;320;67914
2021-02-18;301;68215
2021-02-19;338;68553
2021-02-20;216;68769
2021-02-21;221;68990
2021-02-22;410;69400
2021-02-23;445;69845
2021-02-24;461;70306
2021-02-25;527;70833
2021-02-26;493;71326
2021-02-27;381;71707
2021-02-28;391;72098
2021-03-01;551;72649
2021-03-02;639;73288
2021-03-03;659;73947
2021-03-04;601;74548
2021-03-05;703;75251
2021-03-06;465;75716
2021-03-07;572;76288
2021-03-08;846;77134
2021-03-09;798;77932
2021-03-10;854;78786
2021-03-11;780;79566
2021-03-12;950;80516
2021-03-13;736;81252
2021-03-14;698;81950
2021-03-15;1107;83057
2021-03-16;1007;84064
2021-03-17;1059;85123
2021-03-18;1044;86167
2021-03-19;1000;87167
2021-03-20;709;87876
2021-03-21;649;88525
2021-03-22;1107;89632
2021-03-23;966;90598
2021-03-24;1001;91599
2021-03-25;871;92470
2021-03-26;895;93365
2021-03-27;602;93967
2021-03-28;477;94444
2021-03-29;865;95309
2021-03-30;849;96158
2021-03-31;805;96963
2021-04-01;624;97587
2021-04-02;699;98286
2021-04-03;612;98898
2021-04-04;653;99551
2021-04-05;715;100266
2021-04-06;888;101154
2021-04-07;848;102002
2021-04-08;769;102771
2021-04-09;712;103483
2021-04-10;496;103979
2021-04-11;395;104374
2021-04-12;738;105112
2021-04-13;594;105706
2021-04-14;601;106307
2021-04-15;549;106856
2021-04-16;579;107435
2021-04-17;331;107766
2021-04-18;345;108111
2021-04-19;575;108686
2021-04-20;532;109218
2021-04-21;538;109756
2021-04-22;463;110219
2021-04-23;509;110728
2021-04-24;287;111015
2021-04-25;317;111332
2021-04-26;502;111834
2021-04-27;481;112315
2021-04-28;419;112734
2021-04-29;414;113148
2021-04-30;441;113589
2021-05-01;251;113840
2021-05-02;296;114136
2021-05-03;511;114647
2021-05-04;463;115110
2021-05-05;494;115604
2021-05-06;509;116113
2021-05-07;438;116551
2021-05-08;352;116903
2021-05-09;352;117255
2021-05-10;524;117779
2021-05-11;427;118206
2021-05-12;379;118585
2021-05-13;298;118883
2021-05-14;415;119298
2021-05-15;240;119538
2021-05-16;278;119816
2021-05-17;183;119999
2021-05-18;542;120541
2021-05-19;541;121082
2021-05-20;603;121685
2021-05-21;668;122353
2021-05-22;352;122705
2021-05-23;338;123043
2021-05-24;383;123426
2021-05-25;427;123853
2021-05-26;363;124216
2021-05-27;384;124600
2021-05-28;347;124947
2021-05-29;199;125146
2021-05-30;185;125331
2021-05-31;344;125675
2021-06-01;387;126062
2021-06-02;293;126355
2021-06-03;282;126637
2021-06-04;262;126899
2021-06-05;145;127044
2021-06-06;150;127194
2021-06-07;203;127397
2021-06-08;215;127612
2021-06-09;207;127819
2021-06-10;202;128021
2021-06-11;154;128175
2021-06-12;129;128304
2021-06-13;111;128415
2021-06-14;207;128622
2021-06-15;195;128817
2021-06-16;215;129032
2021-06-17;197;129229
2021-06-18;172;129401
2021-06-19;153;129554
2021-06-20;115;129669
2021-06-21;205;129874
2021-06-22;266;130140
2021-06-23;239;130379
2021-06-24;174;130553
2021-06-25;174;130727
2021-06-26;106;130833
2021-06-27;106;130939
2021-06-28;226;131165
2021-06-29;213;131378
2021-06-30;261;131639
2021-07-01;197;131836
2021-07-02;186;132022
2021-07-03;99;132121
2021-07-04;123;132244
2021-07-05;207;132451
2021-07-06;200;132651
2021-07-07;204;132855
2021-07-08;183;133038
2021-07-09;175;133213
2021-07-10;108;133321
2021-07-11;101;133422
2021-07-12;187;133609
2021-07-13;146;133755
2021-07-14;183;133938
2021-07-15;186;134124
2021-07-16;226;134350
2021-07-17;111;134461
2021-07-18;144;134605
2021-07-19;229;134834
2021-07-20;173;135007
2021-07-21;260;135267
2021-07-22;215;135482
2021-07-23;251;135733
2021-07-24;175;135908
2021-07-25;199;136107
2021-07-26;315;136422
2021-07-27;349;136771
2021-07-28;422;137193
2021-07-29;346;137539
2021-07-30;353;137892
2021-07-31;249;138141
2021-08-01;242;138383
2021-08-02;455;138838
2021-08-03;446;139284
2021-08-04;499;139783
2021-08-05;463;140246
2021-08-06;477;140723
2021-08-07;322;141045
2021-08-08;330;141375
2021-08-09;668;142043
2021-08-10;576;142619
2021-08-11;608;143227
2021-08-12;539;143766
2021-08-13;545;144311
2021-08-14;434;144745
2021-08-15;375;145120
2021-08-16;625;145745
2021-08-17;636;146381
2021-08-18;689;147070
2021-08-19;668;147738
2021-08-20;741;148479
2021-08-21;592;149071
2021-08-22;554;149625
2021-08-23;1179;150804
2021-08-24;1334;152138
2021-08-25;1415;153553
2021-08-26;1393;154946
2021-08-27;1433;156379
2021-08-28;1000;157379
2021-08-29;956;158335
2021-08-30;1855;160190
2021-08-31;1621;161811
2021-09-01;1613;163424
2021-09-02;1522;164946
2021-09-03;1545;166491
2021-09-04;992;167483
2021-09-05;954;168437
2021-09-06;1783;170220
2021-09-07;1438;171658
2021-09-08;1379;173037
2021-09-09;1325;174362
2021-09-10;1183;175545
2021-09-11;664;176209
2021-09-12;777;176986
2021-09-13;1313;178299
2021-09-14;1011;179310
2021-09-15;919;180229
2021-09-16;809;181038
2021-09-17;684;181722
2021-09-18;509;182231
2021-09-19;481;182712
2021-09-20;987;183699
2021-09-21;702;184401
2021-09-22;725;185126
2021-09-23;760;185886
2021-09-24;649;186535
2021-09-25;404;186939
2021-09-26;386;187325
2021-09-27;750;188075
2021-09-28;608;188683
2021-09-29;583;189266
2021-09-30;496;189762
2021-10-01;488;190250
2021-10-02;299;190549
2021-10-03;256;190805
2021-10-04;656;191461
2021-10-05;486;191947
2021-10-06;492;192439
2021-10-07;449;192888
2021-10-08;446;193334
2021-10-09;238;193572
2021-10-10;243;193815
2021-10-11;615;194430
2021-10-12;458;194888
2021-10-13;386;195274
2021-10-14;376;195650
2021-10-15;446;196096
2021-10-16;289;196385
2021-10-17;259;196644
2021-10-18;744;197388
2021-10-19;579;197967
2021-10-20;716;198683
2021-10-21;643;199326
2021-10-22;752;200078
2021-10-23;462;200540
2021-10-24;500;201040
2021-10-25;1222;202262
2021-10-26;1053;203315
2021-10-27;1109;204424
2021-10-28;1137;205561
2021-10-29;1164;206725
2021-10-30;603;207328
2021-10-31;681;208009
2021-11-01;1890;209899
2021-11-02;832;210731